YMR013W-A
YDL196W
YJR023C
YGR176W
YLR400W
YOL150C
YBR027C
YER137W-A
YHR063W-A
YLR232W
YGR164W
YHR139C-A
YEL074W
YLL030C
YER148W-A
YDR510C-A
YHR056W-A
YDL185C-A
YDR102C
YLL065W
YLR235C
YJL142C
YBR099C
YDL050C
YER181C
YGL239C
YLR123C
YMR075C-A
YNL228W
YPL222C-A
YLR120W-A
YDR431W
YLR364C-A
YOR225W
YDL016C
YGR182C
YLR465C
YEL020C-B
YBL108W
YOR376W
YAR073W
YJL127W-A
YER084W
YLR261C
YKL083W
YDR521W
YOR314W
YLR374C
YKL044W
YMR172C-A
Q0010
Q0017
YHR073W-A
YCR064C
YFR034W-A
YLR434C
YBR056W-A
YMR193C-A
YBR131C-A
YAR060C
YLR279W
YLR331C
YGL182C
YCL023C
YJL077W-A
YHR130C
YOR024W
YBR141W-A
YBR012C
YDR278C
YEL032C-A
YDL151C
YAR069C
YLL067W-A
YLR202C
YOR318C
YMR122C
YLR299C-A
YLR169W
YDR048C
YIL059C
YCR022C
YAL068W-A
YPL136W
YLL047W
YDL026W
YGL118C
YOL118C
YIR023C-A
YJL220W
YAL016C-A
YDR230W
YBR109W-A
YER188W
YDR290W
YMR245W
YBR232C
YDR320W-B
YFL031C-A
YDR029W
YGR160W
YDL163W
YHL006W-A
YKL145W-A
YCR001W
YOR135C
YJL195C
YER135C
YDL032W
YIL071W-A
YDR094W
YHL046W-A
YPL044C
YJL015C
YOR073W-A
YFL032W
YJL150W
YLR317W
YML012C-A
YAL069W
YGR291C
YDR360W
YLR154W-A
YPL182C
YLR280C
YHR214W-A
YHR182C-A
YKR035C
YBR113W
YLR286W-A
YIL171W-A
YGL165C
YKL036C
YBL094C
YDL158C
YDR136C
YPR146C
YDL152W
YDL242W
YMR194C-A
YLR467C-A
YGR051C
YJL136W-A
YJL188C
YEL050W-A
YGL063C-A
YGL109W
YIL082W
YFL015C
YHR073C-B
YCR047W-A
YGR137W
YFL063W
YML122C
YPL073C
YFR054C
YHR032W-A
YDR509W
YKR012C
YOR314W-A
YPR126C
YGL102C
YNL285W
YPR130C
YDR545C-A
YDL071C
YDR274C
YLR101C
YHR032C-A
YBL107W-A
YBL073W
YDL247W-A
YDL240C-A
YFL013W-A
YLR140W
YHR165W-A
YLR149C-A
YER145C-A
YMR294W-A
YBR056C-B
YDL221W
YLR184W
YEL034C-A
YEL010W
YCR006C
YOL106W
YGL218W
YKR073C
YPR016W-A
YGR073C
YOR200W
YGL088W
YJR157W
YER084W-A
YBR064W
YER076W-A
YGR259C
YMR290W-A
YNR001W-A
YPR053C
YJR087W
YPR170W-A
YPR197C
YOR108C-A
YNL170W
YFL012W-A
YER091C-A
YOR263C
YHL002C-A
YBR116C
YIL021C-A
YJL175W
YHR173C
YBL109W
YKL165C-A
YDR445C
YPL251W
YML094C-A
YDR544C
YLR464W
YLR294C
YBR144C
YPR038W
YCR045W-A
YML089C
YLR322W
YHR131W-A
YEL053W-A
YBR266C
YIL066W-A
YOR300W
YBR206W
YOR013W
YDR535C
YIL086C
YEL030C-A
YDR149C
YJR162C
YKL118W
YMR173W-A
YHL050W-A
YKL202W
YPL114W
YIL020C-A
YDR442W
YGL074C
YER090C-A
YGR039W
YPR142C
YGL188C
YJL225W-A
YHR217C
YGR025W
YPL205C
YIR020C-B
YOR331C
YML057C-A
YHL034W-A
YKL162C-A
YJL032W
YIL029W-A
YOR015W
YLR349W
YGR107W
YAR019W-A
YMR031W-A
YOL050C
YDL114W-A
YBR224W
YDR053W
YLR111W
YJR114W
YPL142C
YLR339C
YOR041C
YGR151C
YBR032W
YBL077W
YBR190W
YIR020W-A
Q0182
YOR392W
YML101C-A
YMR153C-A
YGR115C
YOR203W
YNL114C
YHL019W-A
YER088C-A
YFL021C-A
YPR012W
YLR222C-A
YMR013C-A
YHR093W
YBR134W
YER088W-B
YOR235W
YML099W-A
YLR230W
YHR180W-A
YPR087W
YGL214W
YKL225W
YAL026C-A
YGR018C
YIR040C
YIL115W-A
YJL119C
YDR354C-A
YOR345C
YOR277C
YHR193C-A
YJL169W
YML116W-A
YKL100W-A
YPR074W-A
YFR052C-A
YIL012W
YKL131W
YKL177W
YAL042C-A
YER147C-A
YKL123W
YDR327W
YGR050C
YHL005C
YKR033C
YMR135W-A
YNL203C
YDR455C
YHL030W-A
YJL075C
YFR010W-A
YFL015W-A
YJL086C
YCL041C
YGL149W
YDR209C
YHR180C-B
YHL037C
YIR030W-A
YGL199C
YNL296W
YBL070C
YIR036W-A
YOL037C
YDL086C-A
YPR150W
YNL235C
YOR055W
YPR160C-A
YJR146W
YBR223W-A
YDR371C-A
YPL250W-A
YGL007W
YDR241W
YML090W
YPL238C
YBR089W
YML133W-B
YML133W-A
YIL054W
YGR064W
YPR195C
YGR290W
YER046W-A
YJL026C-A
YLR124W
YHR054W-A
YDL009C
YJL202C
YNL198C
YLR311C
YDR008C
YEL008W
YBL053W
YBR178W
YMR052C-A
YEL068C
YOR248W
YDR095C
YPR177C
YGL052W
YER038W-A
YMR007W
YDL172C
YLL059C
YKL156C-A
YNL150W
YJR018W
YMR326C
YOR186C-A
YER087C-A
YJL182C
YNL179C
YJR128W
YNL105W
YER158W-A
YJL222W-A
YJL222W-B
YOR231C-A
YGR242W
YLR076C
Q0032
YML031C-A
YPR039W
YOR282W
YML034C-A
YBL012C
YIL025C
YDR154C
YDR010C
YDR220C
YKL153W
YBR209W
YFL019C
YOR325W
YKR047W
YIL028W
YOR105W
YDL096C
YCR018C-A
YAR053W
YBL068W-A
YDR340W
YAL034C-B
YOR050C
YOL134C
YCR085W
YMR046W-A
YLR282C
YDR203W
YDR396W
YJL199C
YOR170W
YGR114C
YMR141C
YBL062W
YGL132W
YAR030C
YLR302C
YMR082C
YBL039C-A
YLR334C
YOR199W
YMR141W-A
YLR041W
YNL319W
YLR458W
YNL089C
YER079C-A
YMR316C-B
YMR316C-A
YNL144W-A
YOR008W-B
YMR306C-A
YJL120W
YBR051W
YGL041C
YAL066W
YOL099C
YJL152W
YCR081C-A
YAL047W-A
YGL217C
YLR402W
YLR379W
YOL046C
YDR112W
YPR050C
YLR365W
YGR293C
YDL011C
YMR307C-A
YBL096C
YGL177W
YEL014C
YPR169W-A
YOR366W
YOL085C
Q0092
YHR125W
Q0144
YLR463C
YKL169C
YOR082C
YCL007C
YKL136W
YKL066W
YOL083C-A
YAR075W
YDL034W
YDR024W
YLR366W
YPL062W
YGL123C-A
YPL261C
YNL120C
YAL019W-A
YIL163C
YLR416C
YLR437C-A
YNL184C
YMR272W-A
YGL024W
YIL068W-A
YBL006W-A
YOL166C
YIL142C-A
YPR092W
YBL071C
YMR158W-B
Q0297
YGL152C
YER068C-A
YOL079W
YOR343C
YPR076W
YAL037C-B
YGR022C
YOL085W-A
YKL076C
YLL037W
YPR099C
YCR049C
YHR049C-A
YIL105W-A
YJL215C
YPL102C
YCL065W
YLR255C
YNL339W-B
YBR124W
YLR338W
YAL031W-A
YNL339W-A
YAL004W
YOR072W
YDL041W
YOR053W
YDL023C
YOR396C-A
YIL030W-A
YDR271C
YNL171C
YNL303W
YPL080C
YDR118W-A
YOR379C
YJR140W-A
YPR170C
YMR119W-A
YMR254C
YAL016C-B
YBR191W-A
YGL069C
YHR218W-A
YPL025C
YPL197C
YCR097W-A
YDR433W
YKL053W
YBL113W-A
YLL020C
YDR525W
YGR270C-A
YJL197C-A
YDL228C
YAR070C
YEL028W
YGR122C-A
YKR040C
YNR042W
YKL030W
YAR047C
YHR137C-A
YOR161W-A
YDL062W
YDR344C
YOR161W-B
YIR020C
YNL057W
YJR037W
YDR157W
YDR417C
YLR217W
YPL135C-A
YKR032W
YDR183C-A
YLR198C
YGR296C-B
YGR296C-A
YNL017C
YNL337W
YPR136C
YJR020W
YHR180W
YLR112W
YER097W
YGL014C-A
YDR401W
YCL046W
YBR226C
YLR252W
YOR029W
YJL067W
YIL047C-A
YOR169C
YJL020W-A
YIL156W-A
YLR399W-A
YKL102C
YDR199W
YFR056C
YHR219C-A
Q0143
YJL211C
YGR265W
YLR040C
YER107W-A
YOR309C
YOR072W-A
YJL009W
YNL028W
YPR064W
YER006C-A
YOR121C
YLR358C
YIL100W
YOL160W
YLR347W-A
YPR160W-A
YLL066W-A
YAL056C-A
YHR069C-A
YDL187C
YLR269C
YBL100C
YGL034C
YIL141W
YHR028W-A
YHR095W
YGR139W
YOR335W-A
YBR300C
YPR014C
YOR146W
YEL045C
YEL059W
YNL143C
YOR364W
YKL223W
YER023C-A
YLR122C
YPR204C-A
YDL022C-A
YLL019W-A
YOR333C
YJR038C
YPL185W
YJL064W
YEL008C-A
YBR292C
YEL077W-A
YBR126W-B
YBR126W-A
YLR296W
YDR215C
YNL276C
YHR212C
YNL174W
YNL109W
YER165C-A
YDL068W
YNL324W
YPL035C
YBL048W
YGR011W
YCL076W
YCR013C
YIR017W-A
YMR086C-A
YHR071C-A
YNL043C
YOL035C
Q0142
YER172C-A
YCL022C
YKL111C
YLR444C
YML084W
YDR413C
YDR524C-A
YDR537C
YDR187C
YHL041W
YNL013C
YBR076C-A
YKR075W-A
YDR355C
YMR304C-A
YAL059C-A
YDR491C
YJL022W
YER152W-A
YJR071W
YEL075W-A
YAL045C
YCR025C
YNL103W-A
YNR005C
YNR077C
YIL177W-A
YLR428C
YNL205C
YNL140C
YPR170W-B
YGR228W
YPR059C
YER133W-A
YGR068W-A
YBL065W
YEL018C-A
YMR103C
YHR070C-A
YBR121C-A
YNR003W-A
YKL147C
YDR015C
YBR174C
YER067C-A
YDL025W-A
YNL266W
YJL135W
YDL162C
YGR190C
YBR103C-A
YMR324C
YDR526C
YGR045C
YDR464C-A
YNL097W-A
YGL042C
YLR236C
YPR044C
YKL097C
YOR218C
YLR062C
YCR041W
YLR154W-B
YML047W-A
YLR154W-E
YLR154W-F
YFR020W
YDR467C
YGR069W
YCR038W-A
YGL204C
YJL007C
YOL013W-B
YIL100C-A
YPR077C
YNL067W-A
YGR226C
YBL083C
YDL094C
YEL009C-A
YHL045W
YPL283W-B
YPL283W-A
YHR052W-A
YLL044W
YDR426C
YLR466C-B
YDR133C
YLR466C-A
YOR102W
YDR250C
YOR329W-A
YLR171W
YCR087W
YER119C-A
YDL159C-B
YIL058W
YDR269C
YML009W-B
YER066C-A
YML009C-A
YFR009W-A
YLR163W-A
YOR139C
YMR057C
YMR151W
YIL032C
YGR269W
YMR320W
YFR036W-A
YKL031W
YDR406W-A
YPR002C-A
YKL115C
YNL338W
YHR145C
YDR543C
YNR025C
YCR102W-A
YPR123C
YNL226W
YER190C-A
YJL156W-A
YGL072C
YDR193W
YBR277C
YGR219W
